module gitlab.com/belov/gotron-sdk

go 1.19

require (
	github.com/araddon/dateparse v0.0.0-20200409225146-d820a6159ab1
	github.com/btcsuite/btcd/btcec/v2 v2.3.2
	github.com/deckarep/golang-set v1.8.0
	github.com/ethereum/go-ethereum v1.12.0
	github.com/fatih/color v1.9.0
	github.com/fatih/structs v1.1.0
	github.com/mitchellh/go-homedir v1.1.0
	github.com/pborman/uuid v1.2.1
	github.com/pkg/errors v0.9.1
	github.com/rjeczalik/notify v0.9.3
	github.com/shengdoushi/base58 v1.0.0
	github.com/spf13/cobra v1.0.0
	github.com/stretchr/testify v1.8.1
	github.com/tyler-smith/go-bip39 v1.1.0
	github.com/zondax/hid v0.9.1
	go.uber.org/zap v1.15.0
	golang.org/x/crypto v0.10.0
	google.golang.org/genproto v0.0.0-20200825200019-8632dd797987
	google.golang.org/grpc v1.37.0
	google.golang.org/protobuf v1.28.1
	gopkg.in/yaml.v2 v2.4.0
)

require (
	github.com/cpuguy83/go-md2man/v2 v2.0.2 // indirect
	github.com/davecgh/go-spew v1.1.1 // indirect
	github.com/decred/dcrd/dcrec/secp256k1/v4 v4.2.0 // indirect
	github.com/go-stack/stack v1.8.1 // indirect
	github.com/golang/protobuf v1.5.2 // indirect
	github.com/google/uuid v1.3.0 // indirect
	github.com/holiman/uint256 v1.2.2 // indirect
	github.com/inconshreveable/mousetrap v1.0.0 // indirect
	github.com/mattn/go-colorable v0.1.13 // indirect
	github.com/mattn/go-isatty v0.0.16 // indirect
	github.com/pmezard/go-difflib v1.0.0 // indirect
	github.com/russross/blackfriday/v2 v2.1.0 // indirect
	github.com/spf13/pflag v1.0.3 // indirect
	go.uber.org/atomic v1.6.0 // indirect
	go.uber.org/multierr v1.5.0 // indirect
	golang.org/x/net v0.10.0 // indirect
	golang.org/x/sys v0.9.0 // indirect
	golang.org/x/term v0.9.0 // indirect
	golang.org/x/text v0.10.0 // indirect
	gopkg.in/yaml.v3 v3.0.1 // indirect
)
